<?xml version="1.0" encoding="UTF-8" standalone="no"?>
<!-- Generator: Adobe Illustrator 15.0.0, SVG Export Plug-In . SVG Version: 6.00 Build 0)  -->
<svg
   xmlns:dc="http://purl.org/dc/elements/1.1/"
   xmlns:cc="http://creativecommons.org/ns#"
   xmlns:rdf="http://www.w3.org/1999/02/22-rdf-syntax-ns#"
   xmlns:svg="http://www.w3.org/2000/svg"
   xmlns="http://www.w3.org/2000/svg"
   xmlns:sodipodi="http://sodipodi.sourceforge.net/DTD/sodipodi-0.dtd"
   xmlns:inkscape="http://www.inkscape.org/namespaces/inkscape"
   version="1.0"
   id="Vrstva_1"
   x="0px"
   y="0px"
   width="547.93713"
   height="269.99994"
   viewBox="0 0 609.84 354.33"
   enable-background="new 0 0 756.85 354.33"
   xml:space="preserve"
   sodipodi:version="0.32"
   inkscape:version="0.46"
   sodipodi:docname="DW178-PL.svg"
   inkscape:output_extension="org.inkscape.output.svg.inkscape"><metadata
   id="metadata15"><rdf:RDF><cc:Work
       rdf:about=""><dc:format>image/svg+xml</dc:format><dc:type
         rdf:resource="http://purl.org/dc/dcmitype/StillImage" /></cc:Work></rdf:RDF></metadata><defs
   id="defs13" /><sodipodi:namedview
   inkscape:window-height="712"
   inkscape:window-width="1280"
   inkscape:pageshadow="2"
   inkscape:pageopacity="0.0"
   guidetolerance="10.0"
   gridtolerance="10.0"
   objecttolerance="10.0"
   borderopacity="1.0"
   bordercolor="#666666"
   pagecolor="#ffffff"
   id="base"
   showgrid="false"
   inkscape:zoom="1.2923685"
   inkscape:cx="206.5778"
   inkscape:cy="129.32046"
   inkscape:window-x="-4"
   inkscape:window-y="-4"
   inkscape:current-layer="Vrstva_1"
   units="px"
   showguides="true" />
<path
   id="rect2780"
   stroke-miterlimit="10"
   d="M -21.809793,5.9054999 L 631.64967,5.9054999 C 645.4655,5.9054999 658.55259,17.787019 658.55259,32.808321 L 658.42748,321.52166 C 658.42748,336.54093 645.46552,348.42448 631.64967,348.42448 L -21.809793,348.42448 C -35.624613,348.42448 -48.712623,336.54093 -48.712623,321.52166 L -48.587503,32.808321 C -48.587503,17.788 -35.623603,5.9054999 -21.809793,5.9054999 z"
   style="fill:#fafd4a;stroke:#000000;stroke-width:11.81099987;stroke-miterlimit:10;stroke-dasharray:none"
   sodipodi:nodetypes="ccccccccc" />





<path
   style="font-size:283.46343994px;font-style:normal;font-variant:normal;font-weight:bold;font-stretch:normal;text-align:center;line-height:125%;writing-mode:lr-tb;text-anchor:middle;fill:#000000;fill-opacity:1;stroke:none;stroke-width:1px;stroke-linecap:butt;stroke-linejoin:miter;stroke-opacity:1;font-family:Drogowskaz;-inkscape-font-specification:Drogowskaz Bold"
   d="M 104.50181,106.29901 L 104.50181,141.73201 L 139.93494,141.73201 L 139.93494,283.464 L 175.36807,283.464 L 175.36807,70.866013 L 139.93494,70.976739 C 139.68096,80.978833 136.22034,89.303049 129.55307,95.949412 C 122.88573,102.59615 114.53531,106.04601 104.50181,106.29901 L 104.50181,106.29901 z M 210.7731,106.29901 L 293.09203,106.29901 L 228.48707,283.464 L 266.58052,283.464 L 334.81676,95.226199 L 334.78929,70.866013 L 210.7731,70.866013 L 210.7731,106.29901 L 210.7731,106.29901 z M 469.90503,217.02713 C 469.65096,227.06063 466.19033,235.41099 459.52311,242.07826 C 452.85567,248.7456 444.50528,252.20622 434.4719,252.46013 C 424.43833,252.20622 416.08792,248.74561 409.42066,242.07826 C 402.75327,235.411 399.29264,227.06063 399.03877,217.02713 C 399.29264,206.99376 402.75327,198.64339 409.42067,191.976 C 416.08793,185.30879 424.43833,181.84817 434.4719,181.59413 C 444.50527,181.84817 452.85566,185.30879 459.52311,191.97601 C 466.19033,198.64339 469.65096,206.99377 469.90503,217.02713 L 469.90503,217.02713 z M 496.47987,128.44464 C 496.02758,110.94054 489.95597,96.342891 478.26503,84.651658 C 466.57382,72.960823 451.97612,66.88924 434.4719,66.436888 C 416.96748,66.889245 402.36979,72.96083 390.67875,84.651662 C 378.98763,96.342892 372.91602,110.94054 372.46392,128.44464 C 372.49144,135.45707 373.58589,142.10267 375.74728,148.38145 C 377.90859,154.66051 380.97151,160.41276 384.93602,165.63822 C 378.26859,172.24589 373.06249,179.94265 369.31771,188.72851 C 365.57288,197.51456 363.66885,206.94743 363.60563,217.02713 C 364.11348,237.20104 371.03475,253.93235 384.36944,267.22108 C 397.70406,280.50986 414.40486,287.40052 434.4719,287.89312 C 454.53876,287.40053 471.23955,280.50986 484.57434,267.22108 C 497.90886,253.93235 504.83012,237.20104 505.33816,217.02713 C 505.27474,206.94743 503.37071,197.51456 499.62605,188.72851 C 495.88108,179.94265 490.67502,172.24589 484.00786,165.63822 C 487.97212,160.41277 491.03499,154.66052 493.1965,148.38145 C 495.35769,142.10266 496.45215,135.45706 496.47987,128.44464 L 496.47987,128.44464 z M 434.4719,155.01939 C 426.96995,154.82574 420.71379,152.22362 415.7034,147.21305 C 410.69287,142.20274 408.09076,135.94661 407.89705,128.44464 C 408.09076,120.94296 410.69287,114.68683 415.7034,109.67621 C 420.71379,104.66594 426.96995,102.06384 434.4719,101.86989 C 441.97365,102.06384 448.22981,104.66594 453.24038,109.67621 C 458.25073,114.68683 460.85285,120.94296 461.04675,128.44464 C 460.85285,135.94661 458.25073,142.20274 453.24038,147.21305 C 448.22981,152.22362 441.97365,154.82574 434.4719,155.01939 L 434.4719,155.01939 z"
   id="text2381"
   sodipodi:nodetypes="cccccccsccccccccccccscscscscccscscscscscscscscccscscscscc" />

</svg>